Hotfix release available: 2015-08-10a "Detritus".
          <a href="http://download.dokuwiki.org">upgrade now!</a> [47.1] <a href="http://www.dokuwiki.org/update_check">(what's this?)</a>
%
New release available: 2015-08-10 "Detritus".
          <a href="http://download.dokuwiki.org">upgrade now!</a> [47] <a href="http://www.dokuwiki.org/update_check">(what's this?)</a>
%
Hotfix release available: 2014-09-29d "Hrun".
          <a href="http://download.dokuwiki.org">upgrade now!</a> [46.4] <a href="http://www.dokuwiki.org/update_check">(what's this?)</a>
%
