a:22:{i:0;a:3:{i:0;s:14:"document_start";i:1;a:0:{}i:2;i:0;}i:1;a:3:{i:0;s:6:"header";i:1;a:3:{i:0;s:12:"GCC Versions";i:1;i:1;i:2;i:1;}i:2;i:1;}i:2;a:3:{i:0;s:12:"section_open";i:1;a:1:{i:0;i:1;}i:2;i:1;}i:3;a:3:{i:0;s:6:"p_open";i:1;a:0:{}i:2;i:1;}i:4;a:3:{i:0;s:5:"cdata";i:1;a:1:{i:0;s:43:"CentOS 6.6 currently has an older version (";}i:2;i:29;}i:5;a:3:{i:0;s:13:"emphasis_open";i:1;a:0:{}i:2;i:72;}i:6;a:3:{i:0;s:5:"cdata";i:1;a:1:{i:0;s:4:"i.e.";}i:2;i:74;}i:7;a:3:{i:0;s:14:"emphasis_close";i:1;a:0:{}i:2;i:78;}i:8;a:3:{i:0;s:5:"cdata";i:1;a:1:{i:0;s:171:", 4.4.7) of gcc as the main version.
This version does not support C++11. Thus, we have installed also install gcc 4.8.2.
In order to use the newer version, you should run";}i:2;i:80;}i:9;a:3:{i:0;s:7:"p_close";i:1;a:0:{}i:2;i:257;}i:10;a:3:{i:0;s:4:"code";i:1;a:3:{i:0;s:30:"$ scl enable devtoolset-2 bash";i:1;N;i:2;N;}i:2;i:257;}i:11;a:3:{i:0;s:6:"p_open";i:1;a:0:{}i:2;i:257;}i:12;a:3:{i:0;s:5:"cdata";i:1;a:1:{i:0;s:106:"before trying to compile anything. A quick test to see which version of gcc you have access to is to type
";}i:2;i:296;}i:13;a:3:{i:0;s:14:"monospace_open";i:1;a:0:{}i:2;i:402;}i:14;a:3:{i:0;s:5:"cdata";i:1;a:1:{i:0;s:4:"gcc ";}i:2;i:404;}i:15;a:3:{i:0;s:6:"entity";i:1;a:1:{i:0;s:2:"--";}i:2;i:408;}i:16;a:3:{i:0;s:5:"cdata";i:1;a:1:{i:0;s:7:"version";}i:2;i:410;}i:17;a:3:{i:0;s:15:"monospace_close";i:1;a:0:{}i:2;i:417;}i:18;a:3:{i:0;s:5:"cdata";i:1;a:1:{i:0;s:1:".";}i:2;i:419;}i:19;a:3:{i:0;s:7:"p_close";i:1;a:0:{}i:2;i:420;}i:20;a:3:{i:0;s:13:"section_close";i:1;a:0:{}i:2;i:420;}i:21;a:3:{i:0;s:12:"document_end";i:1;a:0:{}i:2;i:420;}}