== List of packages installed on CV-MLP Compute Cluster ==


^ Package Name  ^ Version  ^ Installed from?  ^ Installed By:  ^ Date  ^ List of Machines  ^ Notes (e.g. why is this being installed?)  ^
| ipython       |          |                  |                |       |                   |                                            |