====== List of packages installed on CV-MLP Compute Cluster ======

^ Package Name                                        ^ Version                                  ^ Installed from?                                                                                                                                   ^ Installed By:       ^ Date                                             ^ List of Machines                                             ^ Notes (e.g. why is this being installed?)                                                                                                                                                                                                                                                            ^
| ipython                                             | 0.1                                      | yum                                                                                                                                               | Dhruv               | 04/13/14                                         | godel, turing, marr                                          |                                                                                                                                                                                                                                                                                                      |
| python                                              | 2.7                                      | source?                                                                                                                                           | Harsh               | 04/13/14                                         | godel, turing, marr                                          |                                                                                                                                                                                                                                                                                                      |
| ZeroMQ                                              | 4.0.4                                    | [[http://zeromq.org/intro:get-the-software|source]]                                                                                               | Neelima             | 04/14/14                                         | godel, turing, marr                                          | Requirement for Matlab python bridge                                                                                                                                                                                                                                                                 |
| [[https://github.com/zeromq/pyzmq|Pyzmq]]           | 14.1.0                                   | pip install                                                                                                                                       | Neelima             | 04/14/14                                         | godel, marr                                                  | Requirement for Matlab python bridge                                                                                                                                                                                                                                                                 |
| python-matlab-bridge                                |                                          | [[https://github.com/arokem/python-matlab-bridge|Github]]                                                                                         | Neelima             | 04/14/14                                         | godel,marr                                                   | Not installing on other servers as they are not connected to CloudCV                                                                                                                                                                                                                                 |
| xorg-x11-server-Xvfb                                | 1.13.0-23.1.sl6                          | yum                                                                                                                                               | Dhruv               | 04/19/14                                         | godel,turing,marr                                            | %%Faruk needed it for Mainak’s autoclock-in script “it looks like I need a package called 'xvfb' installed, which will tell Firefox that there is a display even though there is none. Firefox does not open if it thinks there is no display.”%%                                                    |
| splinter                                            | 0.6.0                                    | pip                                                                                                                                               | Harsh               | 04/24/14                                         | godel,turing,marr                                            | Needed for automatic login and logout script written by Ankit, used by a lot of people.                                                                                                                                                                                                              |
| pyvirtualdisplay                                    | 0.1.5                                    | pip                                                                                                                                               | Harsh               | 04/24/14                                         | godel,turing,marr                                            | Needed for automatic login and logout script written by Ankit, used by a lot of people.                                                                                                                                                                                                              |
| hdf5, hdf5-devel                                    | 1.8.7                                    | yum                                                                                                                                               | Michael             | 04/25/14                                         | rosenblatt                                                   | godel, turing, and marr already have these installed. Before more repositories were added I had installed this from soure. I removed that install and replaced it with the repo version.                                                                                                             |
| bzip2-devel                                         | 1.0.5-7                                  | yum                                                                                                                                               | Michael             | 04/28/14                                         | rosenblatt                                                   | Required for matplotlib                                                                                                                                                                                                                                                                              |
| freetype-devel                                      | 2.3.11-14                                | yum                                                                                                                                               | Michael             | 04/28/14                                         | rosenblatt                                                   | Required for matplotlib                                                                                                                                                                                                                                                                              |
| libjpeg-turbo-devel                                 | 1.2.1-3                                  | yum                                                                                                                                               | Michael             | 04/30/14                                         | rosenblatt                                                   | PIL needed this to read jpegs                                                                                                                                                                                                                                                                        |
| libpng-devel                                        | 2:1.2.49-1                               | yum                                                                                                                                               | Michael             | 04/28/14                                         | rosenblatt                                                   | Required for matplotlib                                                                                                                                                                                                                                                                              |
| libopebblas                                         | 0.2.8                                    | http://www.openblas.net/ %%Abdullah suggested source installation for multi threaded support. Copied all the libblas libraries into /usr/lib64%%  | Neelima             | 05/04/14                                         | rosenblatt                                                   | Required for Caffe                                                                                                                                                                                                                                                                                   |
| sqlite-devel                                        | 3.6.20-1.el6                             | yum                                                                                                                                               | Michael             | 06/03/14                                         | rosenblatt,vapnik                                            | IPython notebook needed sqlite3 in python2.7. Since python2.7 was built from source (to prevent conflict with python2.6) and pysqlite didn’t work (https://pypi.python.org/pypi/pysqlite/2.6.3) I rebuilt pyton2.7 after installing these headers (see below). Installed on vapnik for consistency.  |
| python (reinstall)                                  | 2.7                                      | source                                                                                                                                            | Michael             | 06/03/14                                         | rosenblatt                                                   | %%See /code/Python-2.7.3. used ‘./configure USE=”sqlite”’ and ‘make altinstall’. See the sqlite-devel note (above) for why. %%                                                                                                                                                                       |
| CUDA                                                | 5.5                                      | yum                                                                                                                                               | Michael             | 06/12/14                                         | vapnik,minsky                                                | The cuda repo adds version 6.0 by default (since it was released in April). Caffe expects version 5.5.                                                                                                                                                                                               |
| readline-devel                                      | 6.0                                      | yum                                                                                                                                               | Michael             | 07/03/14                                         | rosenblatt,vapnik,minsky                                     | <nowiki>My ipython install was complaining about a missing readline plugin, so I updated these 3 machines to be consistent with the other 3.</nowiki>                                                                                                                                                |
| gcc-gfortran                                        | 4.4.7-4                                  | yum                                                                                                                                               | Michael             | 07/15/14                                         | minsky                                                       | numpy / scipy requirement                                                                                                                                                                                                                                                                            |
| powertop                                            | 2.3-3                                    | yum                                                                                                                                               | Michael             | 07/22/14                                         | rosenblatt                                                   | Now that there are 3 GPUs in the machine and we’re running them at full capacity, I want to check on power just to make sure things are fine                                                                                                                                                         |
| Imagemagick                                         | 6.8.9-6                                  | source: http://www.imagemagick.org/script/install-source.php                                                                                      | Neelima             | 07/27/14                                         | rosenblatt,minsky                                            | Needed to install this on Rosenblatt to handle CMYK images for the RCNN code. (Rcnn code uses this). Was already installed on godel, turing, marr, vapnik                                                                                                                                            |
| gdb                                                 | 7.2-60                                   | yum                                                                                                                                               | Michael             | 07/26/14                                         | rosenblatt                                                   | Fairly standard, useful for developing caffe code                                                                                                                                                                                                                                                    |
| <del>cmake</del>                                    | <del>3.0.0</del>                         | <del>source(did not use yum as it was installing a very old version,(2.6.somehting)  i needed a version 2.8 or newer</del>                        | <del>Neelima</del>  | <del>uninstalled on 8/2 installed on 7/28</del>  | <del>marr</del>                                              | <del>standard tool(?)</del>                                                                                                                                                                                                                                                                          |
| cmake                                               | <del>2.8.11.2-1.el6.x86_64  3.0.2</del>  | <del>from yum Now installed from source</del>                                                                                                     | Dhruv               | <del>08/02/14</del>10/14/14                      | godel, turing, marr, minsky, vapnik, rosenblatt, tesla       | Neelima needs 2.8 for building BNG; Qi needed >2.6 for Darwin.                                                                                                                                                                                                                                       |
| daemonize                                           | 1.7.5                                    | from source(only option)                                                                                                                          | Harsh               | 08/06/14                                         | godel, rosenblatt                                            | For running process and daemonize. Needed for some init scripts for the scheduler.                                                                                                                                                                                                                   |
| lmdb                                                | 9.9.14                                   | from source (couldn’t find it in a repo)                                                                                                          | Michael             | 08/09/14                                         | rosenblatt                                                   | Caffe started supporting this as an alternative for leveldb because it is faster and allows more than one process to read a db at once. See notes at /code/lmdb_notes.txt                                                                                                                            |
| gflags-devel                                        | 1.3.7                                    | yum                                                                                                                                               | Michael             | 08/09/14                                         | rosenblatt                                                   | Another new caffe requirement                                                                                                                                                                                                                                                                        |
| czmq-devel                                          | 1.4.1-1                                  | yum                                                                                                                                               | Michael             | 08/24/14                                         | rosenblatt                                                   | pymatbridge requirement                                                                                                                                                                                                                                                                              |
| matlab 2014a                                        | R2014a                                   | copy from other machine                                                                                                                           | Michael             | 08/25/14                                         | rosenblatt                                                   | I wanted this version of matlab on rosenblatt for consistency and so I didn’t have to change my script. The default executable still points to R2013a. I left it like that because I remember some problems with matlab versions and caffe, so I didn’t want to screw up anyone’s code.              |
| openmpi-devel                                       | 0:1.5.4-2                                | yum                                                                                                                                               | Michael             | 09/01/14                                         | rosenblatt                                                   | I needed this to play with https://github.com/bruckner/deepViz                                                                                                                                                                                                                                       |
| graphviz-devel                                      | 2.26.0-10                                | yum                                                                                                                                               | Michael             | 09/01/14                                         | rosenblatt                                                   | Also needed for deepViz                                                                                                                                                                                                                                                                              |
| gflags-devel                                        | 1.3.7                                    | yum                                                                                                                                               | Michael             | 09/14/14                                         | vapnik                                                       | Caffe requirement                                                                                                                                                                                                                                                                                    |
| lmdb                                                | 0.9.13                                   | source                                                                                                                                            | Michael             | 09/14/14                                         | turing                                                       | Same as for rosenblatt, except the repo didn’t have version 0.9.14                                                                                                                                                                                                                                   |
| openblas                                            | 0.2.11                                   | yum                                                                                                                                               | Michael             | 10/09/14                                         | rosenblatt                                                   | consistency                                                                                                                                                                                                                                                                                          |
| tk-devel, turbojpeg-devel, libpcap-devel, xz-devel  | 8.5.7-5, 1.2.1, 1.4.0-1,4.999.9-0.3      | yum                                                                                                                                               | Michael             | 10/09/14                                         | rosenblatt                                                   | consistency                                                                                                                                                                                                                                                                                          |
| libjpeg-turbo-devel, openjpeg-devel                 | 1.2.1-3, 1.3-10                          | yum                                                                                                                                               | Michael             | 10/26/14                                         | tesla                                                        | Wasn’t installed and didn’t catch it till now for some reason                                                                                                                                                                                                                                        |
| tbb (thread building block)-dev                     | 2.2-3.20090809.el6                       | yum                                                                                                                                               | Dhruv               | 11/05/14                                         | godel,turing,marr,minsky,vapnik,mccarthy,rosenblatt, testla  | Needed for boost and RIGOR                                                                                                                                                                                                                                                                           |
|                                                     |                                          |                                                                                                                                                   |                     |                                                  |                                                              |                                                                                                                                                                                                                                                                                                      |
|                                                     |                                          |                                                                                                                                                   |                     |                                                  |                                                              |                                                                                                                                                                                                                                                                                                      |