a:17:{i:0;a:3:{i:0;s:14:"document_start";i:1;a:0:{}i:2;i:0;}i:1;a:3:{i:0;s:6:"header";i:1;a:3:{i:0;s:15:"CVL AMT Account";i:1;i:1;i:2;i:1;}i:2;i:1;}i:2;a:3:{i:0;s:12:"section_open";i:1;a:1:{i:0;i:1;}i:2;i:1;}i:3;a:3:{i:0;s:6:"p_open";i:1;a:0:{}i:2;i:1;}i:4;a:3:{i:0;s:5:"cdata";i:1;a:1:{i:0;s:21:"Name: Research Tasks ";}i:2;i:32;}i:5;a:3:{i:0;s:9:"linebreak";i:1;a:0:{}i:2;i:53;}i:6;a:3:{i:0;s:5:"cdata";i:1;a:1:{i:0;s:42:"
E-mail Address: research.tasks@gmail.com ";}i:2;i:55;}i:7;a:3:{i:0;s:9:"linebreak";i:1;a:0:{}i:2;i:97;}i:8;a:3:{i:0;s:5:"cdata";i:1;a:1:{i:0;s:22:"
Password: mturktasks ";}i:2;i:99;}i:9;a:3:{i:0;s:9:"linebreak";i:1;a:0:{}i:2;i:121;}i:10;a:3:{i:0;s:5:"cdata";i:1;a:1:{i:0;s:34:"
Access Key: AKIAJVXHQ2YFYW53RODQ ";}i:2;i:123;}i:11;a:3:{i:0;s:9:"linebreak";i:1;a:0:{}i:2;i:157;}i:12;a:3:{i:0;s:5:"cdata";i:1;a:1:{i:0;s:54:"
Secret Key: LiGhqkW5tCxh89c+atC/aENWe9LoJ+fScNkW2t9X ";}i:2;i:159;}i:13;a:3:{i:0;s:9:"linebreak";i:1;a:0:{}i:2;i:213;}i:14;a:3:{i:0;s:7:"p_close";i:1;a:0:{}i:2;i:215;}i:15;a:3:{i:0;s:13:"section_close";i:1;a:0:{}i:2;i:216;}i:16;a:3:{i:0;s:12:"document_end";i:1;a:0:{}i:2;i:216;}}