a:13:{i:0;a:3:{i:0;s:14:"document_start";i:1;a:0:{}i:2;i:0;}i:1;a:3:{i:0;s:6:"header";i:1;a:3:{i:0;s:13:"Code Snippets";i:1;i:1;i:2;i:1;}i:2;i:1;}i:2;a:3:{i:0;s:12:"section_open";i:1;a:1:{i:0;i:1;}i:2;i:1;}i:3;a:3:{i:0;s:13:"section_close";i:1;a:0:{}i:2;i:30;}i:4;a:3:{i:0;s:6:"header";i:1;a:3:{i:0;s:19:"Heat Maps in Matlab";i:1;i:2;i:2;i:30;}i:2;i:30;}i:5;a:3:{i:0;s:12:"section_open";i:1;a:1:{i:0;i:2;}i:2;i:30;}i:6;a:3:{i:0;s:4:"code";i:1;a:3:{i:0;s:302:"img = imread(...);
% heatmap is a 2D array
heatmap = immerses(heatmap, ...); % resize to be in the same as image
heatmap = mat2im(heatmap, jet(100), [0 0.2]);
% now heatmap is h*w*3
whatWeNeed = (heatmap + single(img)/255)/2; % if img is already between 0-1 then don’t divide 255

imshow(whatWeNeed);";i:1;N;i:2;N;}i:2;i:68;}i:7;a:3:{i:0;s:6:"p_open";i:1;a:0:{}i:2;i:68;}i:8;a:3:{i:0;s:13:"internalmedia";i:1;a:7:{i:0;s:14:":heat_maps.jpg";i:1;s:0:"";i:2;N;i:3;s:3:"300";i:4;N;i:5;s:5:"cache";i:6;s:7:"details";}i:2;i:380;}i:9;a:3:{i:0;s:5:"cdata";i:1;a:1:{i:0;s:0:"";}i:2;i:403;}i:10;a:3:{i:0;s:7:"p_close";i:1;a:0:{}i:2;i:403;}i:11;a:3:{i:0;s:13:"section_close";i:1;a:0:{}i:2;i:403;}i:12;a:3:{i:0;s:12:"document_end";i:1;a:0:{}i:2;i:403;}}