a:130:{i:0;a:3:{i:0;s:14:"document_start";i:1;a:0:{}i:2;i:0;}i:1;a:3:{i:0;s:6:"header";i:1;a:3:{i:0;s:5:"Torch";i:1;i:1;i:2;i:1;}i:2;i:1;}i:2;a:3:{i:0;s:12:"section_open";i:1;a:1:{i:0;i:1;}i:2;i:1;}i:3;a:3:{i:0;s:6:"p_open";i:1;a:0:{}i:2;i:1;}i:4;a:3:{i:0;s:5:"cdata";i:1;a:1:{i:0;s:7:"Torch (";}i:2;i:22;}i:5;a:3:{i:0;s:12:"externallink";i:1;a:2:{i:0;s:16:"http://torch.ch/";i:1;s:16:"Official Website";}i:2;i:29;}i:6;a:3:{i:0;s:5:"cdata";i:1;a:1:{i:0;s:388:") is a computing framework for LuaJIT, just like numpy and theano for python. Torch is built for deep learning, but can also be used to perform gradient-based optimization of other models. What makes Torch stand out is its blazing fast speed, highly flexible environment just like Matlab and python, easy to install, seamless CUDA integration and active support from Facebook and Google. ";}i:2;i:66;}i:7;a:3:{i:0;s:7:"p_close";i:1;a:0:{}i:2;i:455;}i:8;a:3:{i:0;s:13:"section_close";i:1;a:0:{}i:2;i:455;}i:9;a:3:{i:0;s:6:"header";i:1;a:3:{i:0;s:31:"1. Using Torch on CVMLP Servers";i:1;i:3;i:2;i:455;}i:2;i:455;}i:10;a:3:{i:0;s:12:"section_open";i:1;a:1:{i:0;i:3;}i:2;i:455;}i:11;a:3:{i:0;s:6:"p_open";i:1;a:0:{}i:2;i:455;}i:12;a:3:{i:0;s:5:"cdata";i:1;a:1:{i:0;s:55:"We recommend you to install your own torch. Follow the ";}i:2;i:498;}i:13;a:3:{i:0;s:12:"externallink";i:1;a:2:{i:0;s:41:"http://torch.ch/docs/getting-started.html";i:1;s:13:" instructions";}i:2;i:553;}i:14;a:3:{i:0;s:5:"cdata";i:1;a:1:{i:0;s:134:" on the torch webpage. Torch dependencies are already installed on the server (rosenblatt). You'll only need to git clone and install.";}i:2;i:612;}i:15;a:3:{i:0;s:7:"p_close";i:1;a:0:{}i:2;i:746;}i:16;a:3:{i:0;s:4:"code";i:1;a:3:{i:0;s:92:"
git clone https://github.com/torch/distro.git ~/torch --recursive
cd ~/torch; ./install.sh
";i:1;N;i:2;N;}i:2;i:753;}i:17;a:3:{i:0;s:6:"p_open";i:1;a:0:{}i:2;i:753;}i:18;a:3:{i:0;s:11:"strong_open";i:1;a:0:{}i:2;i:855;}i:19;a:3:{i:0;s:5:"cdata";i:1;a:1:{i:0;s:19:"GPU Lock with Torch";}i:2;i:857;}i:20;a:3:{i:0;s:12:"strong_close";i:1;a:0:{}i:2;i:876;}i:21;a:3:{i:0;s:7:"p_close";i:1;a:0:{}i:2;i:878;}i:22;a:3:{i:0;s:6:"p_open";i:1;a:0:{}i:2;i:878;}i:23;a:3:{i:0;s:5:"cdata";i:1;a:1:{i:0;s:52:"The vtutils library has a GPU lock funtion. Example:";}i:2;i:880;}i:24;a:3:{i:0;s:7:"p_close";i:1;a:0:{}i:2;i:938;}i:25;a:3:{i:0;s:4:"code";i:1;a:3:{i:0;s:104:"
vtutils=require('vtutils');
ID=vtutils.obtain_gpu_lock_id.get_id();
print(ID);
cutorch.setDevice(ID+1);";i:1;N;i:2;N;}i:2;i:938;}i:26;a:3:{i:0;s:6:"p_open";i:1;a:0:{}i:2;i:938;}i:27;a:3:{i:0;s:5:"cdata";i:1;a:1:{i:0;s:108:"Use the ID you get as the gpuid for your torch code (more on this below). If no GPU is free, -1 is returned.";}i:2;i:1052;}i:28;a:3:{i:0;s:7:"p_close";i:1;a:0:{}i:2;i:1160;}i:29;a:3:{i:0;s:6:"p_open";i:1;a:0:{}i:2;i:1160;}i:30;a:3:{i:0;s:11:"strong_open";i:1;a:0:{}i:2;i:1162;}i:31;a:3:{i:0;s:5:"cdata";i:1;a:1:{i:0;s:20:"CUDA_VISIBLE_DEVICES";}i:2;i:1164;}i:32;a:3:{i:0;s:12:"strong_close";i:1;a:0:{}i:2;i:1184;}i:33;a:3:{i:0;s:7:"p_close";i:1;a:0:{}i:2;i:1186;}i:34;a:3:{i:0;s:6:"p_open";i:1;a:0:{}i:2;i:1186;}i:35;a:3:{i:0;s:5:"cdata";i:1;a:1:{i:0;s:232:"Torch by default occupies memory on all available GPU's on a machine. To avoid this from happening, it is recommended to set the CUDA_VISIBLE_DEVICES flag as the GPU ID you get from GPU LOCK (0 indexed). This can be done as follows:";}i:2;i:1188;}i:36;a:3:{i:0;s:7:"p_close";i:1;a:0:{}i:2;i:1420;}i:37;a:3:{i:0;s:4:"code";i:1;a:3:{i:0;s:48:"
CUDA_VISIBLE_DEVICES="ID" th [yourscript.lua] 
";i:1;N;i:2;N;}i:2;i:1427;}i:38;a:3:{i:0;s:6:"p_open";i:1;a:0:{}i:2;i:1427;}i:39;a:3:{i:0;s:5:"cdata";i:1;a:1:{i:0;s:117:"Within yourscript.lua set the GPU ID to 1 (always) using cutorch.setDevice(1) when using CUDA_VISIBLE_DEVICES option.";}i:2;i:1484;}i:40;a:3:{i:0;s:7:"p_close";i:1;a:0:{}i:2;i:1601;}i:41;a:3:{i:0;s:6:"p_open";i:1;a:0:{}i:2;i:1601;}i:42;a:3:{i:0;s:5:"cdata";i:1;a:1:{i:0;s:22:"If you are using your ";}i:2;i:1604;}i:43;a:3:{i:0;s:11:"strong_open";i:1;a:0:{}i:2;i:1626;}i:44;a:3:{i:0;s:5:"cdata";i:1;a:1:{i:0;s:3:"own";}i:2;i:1628;}i:45;a:3:{i:0;s:12:"strong_close";i:1;a:0:{}i:2;i:1631;}i:46;a:3:{i:0;s:5:"cdata";i:1;a:1:{i:0;s:51:" installation of torch, install vtutils as follows:";}i:2;i:1633;}i:47;a:3:{i:0;s:7:"p_close";i:1;a:0:{}i:2;i:1684;}i:48;a:3:{i:0;s:10:"quote_open";i:1;a:0:{}i:2;i:1684;}i:49;a:3:{i:0;s:5:"cdata";i:1;a:1:{i:0;s:14:" 1. git clone ";}i:2;i:1686;}i:50;a:3:{i:0;s:12:"externallink";i:1;a:2:{i:0;s:52:"https://github.com/VT-vision-lab/torch-utilities.git";i:1;N;}i:2;i:1700;}i:51;a:3:{i:0;s:9:"linebreak";i:1;a:0:{}i:2;i:1752;}i:52;a:3:{i:0;s:5:"cdata";i:1;a:1:{i:0;s:22:" 2. cd torch-utilities";}i:2;i:1754;}i:53;a:3:{i:0;s:9:"linebreak";i:1;a:0:{}i:2;i:1776;}i:54;a:3:{i:0;s:5:"cdata";i:1;a:1:{i:0;s:57:" 3. Remove any build directory which exists : rm -r build";}i:2;i:1778;}i:55;a:3:{i:0;s:9:"linebreak";i:1;a:0:{}i:2;i:1835;}i:56;a:3:{i:0;s:5:"cdata";i:1;a:1:{i:0;s:9:" 4. Type ";}i:2;i:1837;}i:57;a:3:{i:0;s:18:"doublequoteopening";i:1;a:0:{}i:2;i:1846;}i:58;a:3:{i:0;s:5:"cdata";i:1;a:1:{i:0;s:13:"luarocks make";}i:2;i:1847;}i:59;a:3:{i:0;s:18:"doublequoteclosing";i:1;a:0:{}i:2;i:1860;}i:60;a:3:{i:0;s:9:"linebreak";i:1;a:0:{}i:2;i:1861;}i:61;a:3:{i:0;s:5:"cdata";i:1;a:1:{i:0;s:51:" 5. vtutils is now added to your torch installation";}i:2;i:1863;}i:62;a:3:{i:0;s:11:"quote_close";i:1;a:0:{}i:2;i:1914;}i:63;a:3:{i:0;s:13:"section_close";i:1;a:0:{}i:2;i:1916;}i:64;a:3:{i:0;s:6:"header";i:1;a:3:{i:0;s:45:"2. Doing a Fresh Install on Your Own Machines";i:1;i:3;i:2;i:1916;}i:2;i:1916;}i:65;a:3:{i:0;s:12:"section_open";i:1;a:1:{i:0;i:3;}i:2;i:1916;}i:66;a:3:{i:0;s:6:"p_open";i:1;a:0:{}i:2;i:1916;}i:67;a:3:{i:0;s:5:"cdata";i:1;a:1:{i:0;s:4:"See ";}i:2;i:1972;}i:68;a:3:{i:0;s:12:"internallink";i:1;a:2:{i:0;s:13:"torch_install";i:1;s:41:"Installing CUDA and Torch on Ubuntu 14.04";}i:2;i:1976;}i:69;a:3:{i:0;s:5:"cdata";i:1;a:1:{i:0;s:1:".";}i:2;i:2035;}i:70;a:3:{i:0;s:7:"p_close";i:1;a:0:{}i:2;i:2037;}i:71;a:3:{i:0;s:13:"section_close";i:1;a:0:{}i:2;i:2037;}i:72;a:3:{i:0;s:6:"header";i:1;a:3:{i:0;s:17:"3. Learning Torch";i:1;i:3;i:2;i:2037;}i:2;i:2037;}i:73;a:3:{i:0;s:12:"section_open";i:1;a:1:{i:0;i:3;}i:2;i:2037;}i:74;a:3:{i:0;s:6:"p_open";i:1;a:0:{}i:2;i:2037;}i:75;a:3:{i:0;s:5:"cdata";i:1;a:1:{i:0;s:33:"These materials might be helpful.";}i:2;i:2065;}i:76;a:3:{i:0;s:7:"p_close";i:1;a:0:{}i:2;i:2098;}i:77;a:3:{i:0;s:10:"listu_open";i:1;a:0:{}i:2;i:2098;}i:78;a:3:{i:0;s:13:"listitem_open";i:1;a:1:{i:0;i:1;}i:2;i:2098;}i:79;a:3:{i:0;s:16:"listcontent_open";i:1;a:0:{}i:2;i:2098;}i:80;a:3:{i:0;s:5:"cdata";i:1;a:1:{i:0;s:1:" ";}i:2;i:2102;}i:81;a:3:{i:0;s:12:"externallink";i:1;a:2:{i:0;s:46:"http://torch.ch/docs/five-simple-examples.html";i:1;s:20:"Five simple examples";}i:2;i:2103;}i:82;a:3:{i:0;s:5:"cdata";i:1;a:1:{i:0;s:56:". Simple Torch examples on optimizing a convex function.";}i:2;i:2174;}i:83;a:3:{i:0;s:17:"listcontent_close";i:1;a:0:{}i:2;i:2230;}i:84;a:3:{i:0;s:14:"listitem_close";i:1;a:0:{}i:2;i:2230;}i:85;a:3:{i:0;s:13:"listitem_open";i:1;a:1:{i:0;i:1;}i:2;i:2230;}i:86;a:3:{i:0;s:16:"listcontent_open";i:1;a:0:{}i:2;i:2230;}i:87;a:3:{i:0;s:5:"cdata";i:1;a:1:{i:0;s:1:" ";}i:2;i:2234;}i:88;a:3:{i:0;s:12:"externallink";i:1;a:2:{i:0;s:37:"http://code.madbits.com/wiki/doku.php";i:1;s:28:"Machine Learning with Torch7";}i:2;i:2235;}i:89;a:3:{i:0;s:5:"cdata";i:1;a:1:{i:0;s:68:". Classification, autoencoder and graphical model examples in Torch.";}i:2;i:2305;}i:90;a:3:{i:0;s:17:"listcontent_close";i:1;a:0:{}i:2;i:2373;}i:91;a:3:{i:0;s:14:"listitem_close";i:1;a:0:{}i:2;i:2373;}i:92;a:3:{i:0;s:13:"listitem_open";i:1;a:1:{i:0;i:1;}i:2;i:2373;}i:93;a:3:{i:0;s:16:"listcontent_open";i:1;a:0:{}i:2;i:2373;}i:94;a:3:{i:0;s:5:"cdata";i:1;a:1:{i:0;s:1:" ";}i:2;i:2377;}i:95;a:3:{i:0;s:12:"externallink";i:1;a:2:{i:0;s:32:"http://torch.ch/docs/cvpr15.html";i:1;s:24:"CVPR 2015 Torch Tutorial";}i:2;i:2378;}i:96;a:3:{i:0;s:5:"cdata";i:1;a:1:{i:0;s:38:". A blitz tutorial on basics of Torch.";}i:2;i:2439;}i:97;a:3:{i:0;s:17:"listcontent_close";i:1;a:0:{}i:2;i:2477;}i:98;a:3:{i:0;s:14:"listitem_close";i:1;a:0:{}i:2;i:2477;}i:99;a:3:{i:0;s:13:"listitem_open";i:1;a:1:{i:0;i:1;}i:2;i:2477;}i:100;a:3:{i:0;s:16:"listcontent_open";i:1;a:0:{}i:2;i:2477;}i:101;a:3:{i:0;s:5:"cdata";i:1;a:1:{i:0;s:1:" ";}i:2;i:2481;}i:102;a:3:{i:0;s:12:"externallink";i:1;a:2:{i:0;s:57:"https://github.com/torch/torch7/blob/master/doc/tensor.md";i:1;s:6:"Tensor";}i:2;i:2482;}i:103;a:3:{i:0;s:5:"cdata";i:1;a:1:{i:0;s:39:". Torch Tensor documentation on GitHub.";}i:2;i:2550;}i:104;a:3:{i:0;s:17:"listcontent_close";i:1;a:0:{}i:2;i:2589;}i:105;a:3:{i:0;s:14:"listitem_close";i:1;a:0:{}i:2;i:2589;}i:106;a:3:{i:0;s:13:"listitem_open";i:1;a:1:{i:0;i:1;}i:2;i:2589;}i:107;a:3:{i:0;s:16:"listcontent_open";i:1;a:0:{}i:2;i:2589;}i:108;a:3:{i:0;s:5:"cdata";i:1;a:1:{i:0;s:1:" ";}i:2;i:2593;}i:109;a:3:{i:0;s:12:"externallink";i:1;a:2:{i:0;s:52:"https://github.com/torch/nn/blob/master/doc/index.md";i:1;s:2:"NN";}i:2;i:2594;}i:110;a:3:{i:0;s:5:"cdata";i:1;a:1:{i:0;s:35:". Torch nn documentation on GitHub.";}i:2;i:2653;}i:111;a:3:{i:0;s:17:"listcontent_close";i:1;a:0:{}i:2;i:2688;}i:112;a:3:{i:0;s:14:"listitem_close";i:1;a:0:{}i:2;i:2688;}i:113;a:3:{i:0;s:13:"listitem_open";i:1;a:1:{i:0;i:1;}i:2;i:2688;}i:114;a:3:{i:0;s:16:"listcontent_open";i:1;a:0:{}i:2;i:2688;}i:115;a:3:{i:0;s:5:"cdata";i:1;a:1:{i:0;s:1:" ";}i:2;i:2692;}i:116;a:3:{i:0;s:12:"externallink";i:1;a:2:{i:0;s:36:"https://github.com/karpathy/char-rnn";i:1;s:8:"Char-RNN";}i:2;i:2693;}i:117;a:3:{i:0;s:5:"cdata";i:1;a:1:{i:0;s:63:". Andrej Kaparthy's Char-RNN implementation in Torch on GitHub.";}i:2;i:2742;}i:118;a:3:{i:0;s:17:"listcontent_close";i:1;a:0:{}i:2;i:2805;}i:119;a:3:{i:0;s:14:"listitem_close";i:1;a:0:{}i:2;i:2805;}i:120;a:3:{i:0;s:13:"listitem_open";i:1;a:1:{i:0;i:1;}i:2;i:2805;}i:121;a:3:{i:0;s:16:"listcontent_open";i:1;a:0:{}i:2;i:2805;}i:122;a:3:{i:0;s:5:"cdata";i:1;a:1:{i:0;s:1:" ";}i:2;i:2809;}i:123;a:3:{i:0;s:12:"externallink";i:1;a:2:{i:0;s:47:"https://github.com/torch/torch7/wiki/Cheatsheet";i:1;s:17:"Torch7 Cheatsheet";}i:2;i:2810;}i:124;a:3:{i:0;s:5:"cdata";i:1;a:1:{i:0;s:37:". A cheatsheet that lists everything.";}i:2;i:2879;}i:125;a:3:{i:0;s:17:"listcontent_close";i:1;a:0:{}i:2;i:2916;}i:126;a:3:{i:0;s:14:"listitem_close";i:1;a:0:{}i:2;i:2916;}i:127;a:3:{i:0;s:11:"listu_close";i:1;a:0:{}i:2;i:2916;}i:128;a:3:{i:0;s:13:"section_close";i:1;a:0:{}i:2;i:2916;}i:129;a:3:{i:0;s:12:"document_end";i:1;a:0:{}i:2;i:2916;}}