a:82:{i:0;a:3:{i:0;s:14:"document_start";i:1;a:0:{}i:2;i:0;}i:1;a:3:{i:0;s:6:"header";i:1;a:3:{i:0;s:14:"Setting up LPO";i:1;i:1;i:2;i:1;}i:2;i:1;}i:2;a:3:{i:0;s:12:"section_open";i:1;a:1:{i:0;i:1;}i:2;i:1;}i:3;a:3:{i:0;s:6:"p_open";i:1;a:0:{}i:2;i:1;}i:4;a:3:{i:0;s:14:"underline_open";i:1;a:0:{}i:2;i:31;}i:5;a:3:{i:0;s:5:"cdata";i:1;a:1:{i:0;s:3:"LPO";}i:2;i:33;}i:6;a:3:{i:0;s:15:"underline_close";i:1;a:0:{}i:2;i:36;}i:7;a:3:{i:0;s:5:"cdata";i:1;a:1:{i:0;s:1:" ";}i:2;i:38;}i:8;a:3:{i:0;s:9:"linebreak";i:1;a:0:{}i:2;i:39;}i:9;a:3:{i:0;s:5:"cdata";i:1;a:1:{i:0;s:1:"
";}i:2;i:41;}i:10;a:3:{i:0;s:12:"externallink";i:1;a:2:{i:0;s:29:"https://github.com/philkr/lpo";i:1;s:3:"lpo";}i:2;i:42;}i:11;a:3:{i:0;s:5:"cdata";i:1;a:1:{i:0;s:33:" is a new object proposal method.";}i:2;i:79;}i:12;a:3:{i:0;s:7:"p_close";i:1;a:0:{}i:2;i:112;}i:13;a:3:{i:0;s:6:"p_open";i:1;a:0:{}i:2;i:112;}i:14;a:3:{i:0;s:14:"underline_open";i:1;a:0:{}i:2;i:114;}i:15;a:3:{i:0;s:5:"cdata";i:1;a:1:{i:0;s:15:"Using newer GCC";}i:2;i:116;}i:16;a:3:{i:0;s:15:"underline_close";i:1;a:0:{}i:2;i:131;}i:17;a:3:{i:0;s:5:"cdata";i:1;a:1:{i:0;s:1:" ";}i:2;i:133;}i:18;a:3:{i:0;s:9:"linebreak";i:1;a:0:{}i:2;i:134;}i:19;a:3:{i:0;s:5:"cdata";i:1;a:1:{i:0;s:28:"
To use GCC 4.8.2, which is ";}i:2;i:136;}i:20;a:3:{i:0;s:11:"strong_open";i:1;a:0:{}i:2;i:164;}i:21;a:3:{i:0;s:5:"cdata";i:1;a:1:{i:0;s:3:"not";}i:2;i:166;}i:22;a:3:{i:0;s:12:"strong_close";i:1;a:0:{}i:2;i:169;}i:23;a:3:{i:0;s:5:"cdata";i:1;a:1:{i:0;s:35:" the machine default version, enter";}i:2;i:171;}i:24;a:3:{i:0;s:7:"p_close";i:1;a:0:{}i:2;i:212;}i:25;a:3:{i:0;s:4:"code";i:1;a:3:{i:0;s:30:"$ scl enable devtoolset-2 bash";i:1;N;i:2;N;}i:2;i:212;}i:26;a:3:{i:0;s:6:"p_open";i:1;a:0:{}i:2;i:212;}i:27;a:3:{i:0;s:5:"cdata";i:1;a:1:{i:0;s:59:"into your terminal. You can double-check that it by typing ";}i:2;i:251;}i:28;a:3:{i:0;s:14:"monospace_open";i:1;a:0:{}i:2;i:310;}i:29;a:3:{i:0;s:5:"cdata";i:1;a:1:{i:0;s:4:"gcc ";}i:2;i:312;}i:30;a:3:{i:0;s:6:"entity";i:1;a:1:{i:0;s:2:"--";}i:2;i:316;}i:31;a:3:{i:0;s:5:"cdata";i:1;a:1:{i:0;s:7:"version";}i:2;i:318;}i:32;a:3:{i:0;s:15:"monospace_close";i:1;a:0:{}i:2;i:325;}i:33;a:3:{i:0;s:5:"cdata";i:1;a:1:{i:0;s:1:".";}i:2;i:327;}i:34;a:3:{i:0;s:7:"p_close";i:1;a:0:{}i:2;i:328;}i:35;a:3:{i:0;s:6:"p_open";i:1;a:0:{}i:2;i:328;}i:36;a:3:{i:0;s:14:"underline_open";i:1;a:0:{}i:2;i:330;}i:37;a:3:{i:0;s:5:"cdata";i:1;a:1:{i:0;s:14:"Installing LPO";}i:2;i:332;}i:38;a:3:{i:0;s:15:"underline_close";i:1;a:0:{}i:2;i:346;}i:39;a:3:{i:0;s:5:"cdata";i:1;a:1:{i:0;s:1:" ";}i:2;i:348;}i:40;a:3:{i:0;s:9:"linebreak";i:1;a:0:{}i:2;i:349;}i:41;a:3:{i:0;s:5:"cdata";i:1;a:1:{i:0;s:46:"
Go to the base directory you want to install ";}i:2;i:351;}i:42;a:3:{i:0;s:14:"monospace_open";i:1;a:0:{}i:2;i:397;}i:43;a:3:{i:0;s:5:"cdata";i:1;a:1:{i:0;s:3:"lpo";}i:2;i:399;}i:44;a:3:{i:0;s:15:"monospace_close";i:1;a:0:{}i:2;i:402;}i:45;a:3:{i:0;s:5:"cdata";i:1;a:1:{i:0;s:1:".";}i:2;i:404;}i:46;a:3:{i:0;s:7:"p_close";i:1;a:0:{}i:2;i:411;}i:47;a:3:{i:0;s:4:"code";i:1;a:3:{i:0;s:110:"
cd <directory_to_create_lpo_folder_in>
git clone https://github.com/philkr/lpo.git
cd lpo
vim CMakeLists.txt
";i:1;N;i:2;N;}i:2;i:411;}i:48;a:3:{i:0;s:6:"p_open";i:1;a:0:{}i:2;i:411;}i:49;a:3:{i:0;s:5:"cdata";i:1;a:1:{i:0;s:19:"Underneath the line";}i:2;i:530;}i:50;a:3:{i:0;s:7:"p_close";i:1;a:0:{}i:2;i:555;}i:51;a:3:{i:0;s:4:"code";i:1;a:3:{i:0;s:51:"option( USE_PYTHON "Enable the python wrapper" ON )";i:1;N;i:2;N;}i:2;i:555;}i:52;a:3:{i:0;s:6:"p_open";i:1;a:0:{}i:2;i:555;}i:53;a:3:{i:0;s:5:"cdata";i:1;a:1:{i:0;s:23:"add the following line ";}i:2;i:615;}i:54;a:3:{i:0;s:7:"p_close";i:1;a:0:{}i:2;i:644;}i:55;a:3:{i:0;s:4:"code";i:1;a:3:{i:0;s:19:"SET( USE_PYTHON 2 )";i:1;N;i:2;N;}i:2;i:644;}i:56;a:3:{i:0;s:6:"p_open";i:1;a:0:{}i:2;i:644;}i:57;a:3:{i:0;s:5:"cdata";i:1;a:1:{i:0;s:45:" to make use of Python2.7 (which is what the ";}i:2;i:671;}i:58;a:3:{i:0;s:12:"internallink";i:1;a:2:{i:0;s:11:"python_venv";i:1;s:23:"lab virtual environment";}i:2;i:716;}i:59;a:3:{i:0;s:5:"cdata";i:1;a:1:{i:0;s:13:" is running).";}i:2;i:755;}i:60;a:3:{i:0;s:7:"p_close";i:1;a:0:{}i:2;i:768;}i:61;a:3:{i:0;s:6:"p_open";i:1;a:0:{}i:2;i:768;}i:62;a:3:{i:0;s:5:"cdata";i:1;a:1:{i:0;s:52:"Now you should be able to follow their instructions:";}i:2;i:770;}i:63;a:3:{i:0;s:7:"p_close";i:1;a:0:{}i:2;i:828;}i:64;a:3:{i:0;s:4:"code";i:1;a:3:{i:0;s:96:"
mkdir build
cd build
cmake .. -DCMAKE_BUILD_TYPE=Release -DDATA_DIR=/path/to/datasets
make -j8
";i:1;N;i:2;N;}i:2;i:828;}i:65;a:3:{i:0;s:6:"p_open";i:1;a:0:{}i:2;i:828;}i:66;a:3:{i:0;s:5:"cdata";i:1;a:1:{i:0;s:201:"I was running into issues on the servers (didn't face this on my laptop Ubuntu install) with it not compiling Python due to Boost stuff.
In /usr/lib64/boost/Boost-relwithdebinfo.cmake, changing it from";}i:2;i:934;}i:67;a:3:{i:0;s:7:"p_close";i:1;a:0:{}i:2;i:1141;}i:68;a:3:{i:0;s:4:"code";i:1;a:3:{i:0;s:486:"
# Import target "boost_python-mt-shared" for configuration "RelWithDebInfo"
SET_PROPERTY(TARGET boost_python-mt-shared APPEND PROPERTY IMPORTED_CONFIGURATIONS RELWITHDEBINFO)
SET_TARGET_PROPERTIES(boost_python-mt-shared PROPERTIES
  IMPORTED_LINK_INTERFACE_LIBRARIES_RELWITHDEBINFO "pthread;rt;/usr/lib64/python2.6/config/libpython2.6.so"
  IMPORTED_LOCATION_RELWITHDEBINFO "${_IMPORT_PREFIX}/lib64/libboost_python-mt.so.5"
  IMPORTED_SONAME_RELWITHDEBINFO "libboost_python-mt.so.5"
)
";i:1;N;i:2;N;}i:2;i:1141;}i:69;a:3:{i:0;s:6:"p_open";i:1;a:0:{}i:2;i:1141;}i:70;a:3:{i:0;s:5:"cdata";i:1;a:1:{i:0;s:2:"to";}i:2;i:1636;}i:71;a:3:{i:0;s:7:"p_close";i:1;a:0:{}i:2;i:1644;}i:72;a:3:{i:0;s:4:"code";i:1;a:3:{i:0;s:467:"
# Import target "boost_python-mt-shared" for configuration "RelWithDebInfo"
SET_PROPERTY(TARGET boost_python-mt-shared APPEND PROPERTY IMPORTED_CONFIGURATIONS RELWITHDEBINFO)
SET_TARGET_PROPERTIES(boost_python-mt-shared PROPERTIES
  IMPORTED_LINK_INTERFACE_LIBRARIES_RELWITHDEBINFO "pthread;rt;/usr/local/lib/libpython2.7.so"
  IMPORTED_LOCATION_RELWITHDEBINFO "${_IMPORT_PREFIX}/libboost_python-mt.so.5"
  IMPORTED_SONAME_RELWITHDEBINFO "libboost_python-mt.so.5"
)
";i:1;N;i:2;N;}i:2;i:1644;}i:73;a:3:{i:0;s:6:"p_open";i:1;a:0:{}i:2;i:1644;}i:74;a:3:{i:0;s:5:"cdata";i:1;a:1:{i:0;s:30:"make it compile successfully. ";}i:2;i:2120;}i:75;a:3:{i:0;s:11:"strong_open";i:1;a:0:{}i:2;i:2150;}i:76;a:3:{i:0;s:5:"cdata";i:1;a:1:{i:0;s:82:"Note, this is currently only done on vapnik, so if you compile, compile on vapnik.";}i:2;i:2152;}i:77;a:3:{i:0;s:12:"strong_close";i:1;a:0:{}i:2;i:2234;}i:78;a:3:{i:0;s:5:"cdata";i:1;a:1:{i:0;s:0:"";}i:2;i:2236;}i:79;a:3:{i:0;s:7:"p_close";i:1;a:0:{}i:2;i:2236;}i:80;a:3:{i:0;s:13:"section_close";i:1;a:0:{}i:2;i:2236;}i:81;a:3:{i:0;s:12:"document_end";i:1;a:0:{}i:2;i:2236;}}