a:17:{i:0;a:3:{i:0;s:14:"document_start";i:1;a:0:{}i:2;i:0;}i:1;a:3:{i:0;s:6:"header";i:1;a:3:{i:0;s:16:"MLPL AMT Account";i:1;i:1;i:2;i:1;}i:2;i:1;}i:2;a:3:{i:0;s:12:"section_open";i:1;a:1:{i:0;i:1;}i:2;i:1;}i:3;a:3:{i:0;s:6:"p_open";i:1;a:0:{}i:2;i:1;}i:4;a:3:{i:0;s:5:"cdata";i:1;a:1:{i:0;s:14:"Name: MLP Lab ";}i:2;i:33;}i:5;a:3:{i:0;s:9:"linebreak";i:1;a:0:{}i:2;i:47;}i:6;a:3:{i:0;s:5:"cdata";i:1;a:1:{i:0;s:45:"
E-mail Address: batra.mlp.lab+amt@gmail.com ";}i:2;i:49;}i:7;a:3:{i:0;s:9:"linebreak";i:1;a:0:{}i:2;i:94;}i:8;a:3:{i:0;s:5:"cdata";i:1;a:1:{i:0;s:26:"
Password: VTMLPlabonAMT! ";}i:2;i:96;}i:9;a:3:{i:0;s:9:"linebreak";i:1;a:0:{}i:2;i:122;}i:10;a:3:{i:0;s:5:"cdata";i:1;a:1:{i:0;s:34:"
Access Key: AKIAJJAX5L5WY3SHR3TA ";}i:2;i:124;}i:11;a:3:{i:0;s:9:"linebreak";i:1;a:0:{}i:2;i:158;}i:12;a:3:{i:0;s:5:"cdata";i:1;a:1:{i:0;s:54:"
Secret Key: xFgC8/YKw9s2FJLYzdHnjIgnM1/JH64AorrSMW8w ";}i:2;i:160;}i:13;a:3:{i:0;s:9:"linebreak";i:1;a:0:{}i:2;i:214;}i:14;a:3:{i:0;s:7:"p_close";i:1;a:0:{}i:2;i:216;}i:15;a:3:{i:0;s:13:"section_close";i:1;a:0:{}i:2;i:217;}i:16;a:3:{i:0;s:12:"document_end";i:1;a:0:{}i:2;i:217;}}