a:62:{i:0;a:3:{i:0;s:14:"document_start";i:1;a:0:{}i:2;i:0;}i:1;a:3:{i:0;s:6:"header";i:1;a:3:{i:0;s:8:"GPU Lock";i:1;i:1;i:2;i:1;}i:2;i:1;}i:2;a:3:{i:0;s:12:"section_open";i:1;a:1:{i:0;i:1;}i:2;i:1;}i:3;a:3:{i:0;s:6:"p_open";i:1;a:0:{}i:2;i:1;}i:4;a:3:{i:0;s:5:"cdata";i:1;a:1:{i:0;s:155:"As many of us are beginning to use GPUs for our research, we need a solution to not step over each other’s toes. The solution is a library/module called ";}i:2;i:25;}i:5;a:3:{i:0;s:12:"externallink";i:1;a:2:{i:0;s:59:"http://homepages.inf.ed.ac.uk/imurray2/code/gpu_monitoring/";i:1;s:9:" gpu_lock";}i:2;i:180;}i:6;a:3:{i:0;s:7:"p_close";i:1;a:0:{}i:2;i:254;}i:7;a:3:{i:0;s:6:"p_open";i:1;a:0:{}i:2;i:254;}i:8;a:3:{i:0;s:5:"cdata";i:1;a:1:{i:0;s:26:"The library is located in ";}i:2;i:256;}i:9;a:3:{i:0;s:14:"underline_open";i:1;a:0:{}i:2;i:282;}i:10;a:3:{i:0;s:5:"cdata";i:1;a:1:{i:0;s:20:"/srv/share/gpu_lock/";}i:2;i:284;}i:11;a:3:{i:0;s:15:"underline_close";i:1;a:0:{}i:2;i:304;}i:12;a:3:{i:0;s:7:"p_close";i:1;a:0:{}i:2;i:306;}i:13;a:3:{i:0;s:6:"p_open";i:1;a:0:{}i:2;i:306;}i:14;a:3:{i:0;s:5:"cdata";i:1;a:1:{i:0;s:4:"You ";}i:2;i:308;}i:15;a:3:{i:0;s:11:"strong_open";i:1;a:0:{}i:2;i:312;}i:16;a:3:{i:0;s:5:"cdata";i:1;a:1:{i:0;s:4:"must";}i:2;i:314;}i:17;a:3:{i:0;s:12:"strong_close";i:1;a:0:{}i:2;i:318;}i:18;a:3:{i:0;s:5:"cdata";i:1;a:1:{i:0;s:33:" add the following lines to your ";}i:2;i:320;}i:19;a:3:{i:0;s:14:"monospace_open";i:1;a:0:{}i:2;i:353;}i:20;a:3:{i:0;s:5:"cdata";i:1;a:1:{i:0;s:9:"~/.bashrc";}i:2;i:355;}i:21;a:3:{i:0;s:15:"monospace_close";i:1;a:0:{}i:2;i:364;}i:22;a:3:{i:0;s:5:"cdata";i:1;a:1:{i:0;s:6:" file:";}i:2;i:366;}i:23;a:3:{i:0;s:7:"p_close";i:1;a:0:{}i:2;i:372;}i:24;a:3:{i:0;s:4:"code";i:1;a:3:{i:0;s:93:"
export PATH="$PATH:/srv/share/gpu_lock"
export PYTHONPATH="$PYTHONPATH:/srv/share/gpu_lock"
";i:1;s:4:"bash";i:2;N;}i:2;i:379;}i:25;a:3:{i:0;s:6:"p_open";i:1;a:0:{}i:2;i:379;}i:26;a:3:{i:0;s:5:"cdata";i:1;a:1:{i:0;s:10:"In Python:";}i:2;i:487;}i:27;a:3:{i:0;s:7:"p_close";i:1;a:0:{}i:2;i:497;}i:28;a:3:{i:0;s:4:"code";i:1;a:3:{i:0;s:48:"
import gpu_lock
id = gpu_lock.obtain_lock_id()
";i:1;s:6:"python";i:2;N;}i:2;i:504;}i:29;a:3:{i:0;s:6:"p_open";i:1;a:0:{}i:2;i:504;}i:30;a:3:{i:0;s:5:"cdata";i:1;a:1:{i:0;s:138:"Feed the id to Caffe or Torch or your favorite library.
If you get back an id = -1, you can’t run your script because all GPUs are busy.";}i:2;i:569;}i:31;a:3:{i:0;s:7:"p_close";i:1;a:0:{}i:2;i:707;}i:32;a:3:{i:0;s:6:"p_open";i:1;a:0:{}i:2;i:707;}i:33;a:3:{i:0;s:11:"strong_open";i:1;a:0:{}i:2;i:709;}i:34;a:3:{i:0;s:5:"cdata";i:1;a:1:{i:0;s:140:"Due to issues with the library, it is not easy to install this as a pip module, so you must add the directory to your paths, as shown above.";}i:2;i:711;}i:35;a:3:{i:0;s:12:"strong_close";i:1;a:0:{}i:2;i:851;}i:36;a:3:{i:0;s:7:"p_close";i:1;a:0:{}i:2;i:853;}i:37;a:3:{i:0;s:6:"p_open";i:1;a:0:{}i:2;i:853;}i:38;a:3:{i:0;s:5:"cdata";i:1;a:1:{i:0;s:124:"The Lua code is installed on the server. If you are using the torch installation in /srv/share/torch it should be available.";}i:2;i:855;}i:39;a:3:{i:0;s:7:"p_close";i:1;a:0:{}i:2;i:979;}i:40;a:3:{i:0;s:6:"p_open";i:1;a:0:{}i:2;i:979;}i:41;a:3:{i:0;s:5:"cdata";i:1;a:1:{i:0;s:59:"To use the GPU locking wrapper for Lua, type the following:";}i:2;i:981;}i:42;a:3:{i:0;s:7:"p_close";i:1;a:0:{}i:2;i:1040;}i:43;a:3:{i:0;s:6:"p_open";i:1;a:0:{}i:2;i:1040;}i:44;a:3:{i:0;s:5:"cdata";i:1;a:1:{i:0;s:18:"Require 'vtutils' ";}i:2;i:1042;}i:45;a:3:{i:0;s:6:"entity";i:1;a:1:{i:0;s:2:"--";}i:2;i:1060;}i:46;a:3:{i:0;s:5:"cdata";i:1;a:1:{i:0;s:56:" This is the library for the lab torch github repository";}i:2;i:1062;}i:47;a:3:{i:0;s:7:"p_close";i:1;a:0:{}i:2;i:1118;}i:48;a:3:{i:0;s:4:"code";i:1;a:3:{i:0;s:32:"ID = obtain_gpu_lock_id.get_id()";i:1;N;i:2;N;}i:2;i:1125;}i:49;a:3:{i:0;s:6:"p_open";i:1;a:0:{}i:2;i:1125;}i:50;a:3:{i:0;s:5:"cdata";i:1;a:1:{i:0;s:88:"Use the ID you get as the gpuid for your torch code. If no GPU is free, -1 is returned.
";}i:2;i:1167;}i:51;a:3:{i:0;s:11:"strong_open";i:1;a:0:{}i:2;i:1255;}i:52;a:3:{i:0;s:5:"cdata";i:1;a:1:{i:0;s:4:"NOTE";}i:2;i:1257;}i:53;a:3:{i:0;s:12:"strong_close";i:1;a:0:{}i:2;i:1261;}i:54;a:3:{i:0;s:5:"cdata";i:1;a:1:{i:0;s:57:": Since Lua indexing starts with 1, you will have to use ";}i:2;i:1263;}i:55;a:3:{i:0;s:11:"strong_open";i:1;a:0:{}i:2;i:1320;}i:56;a:3:{i:0;s:5:"cdata";i:1;a:1:{i:0;s:6:"ID + 1";}i:2;i:1322;}i:57;a:3:{i:0;s:12:"strong_close";i:1;a:0:{}i:2;i:1328;}i:58;a:3:{i:0;s:5:"cdata";i:1;a:1:{i:0;s:183:" to set the device you want to use in Torch.
Once the process runs, it will be freed automatically. As far as using the code is concerned, you don't need to use the github repository.";}i:2;i:1330;}i:59;a:3:{i:0;s:7:"p_close";i:1;a:0:{}i:2;i:1513;}i:60;a:3:{i:0;s:13:"section_close";i:1;a:0:{}i:2;i:1513;}i:61;a:3:{i:0;s:12:"document_end";i:1;a:0:{}i:2;i:1513;}}