a:155:{i:0;a:3:{i:0;s:14:"document_start";i:1;a:0:{}i:2;i:0;}i:1;a:3:{i:0;s:6:"header";i:1;a:3:{i:0;s:34:"Using AMT (Amazon Mechanical Turk)";i:1;i:1;i:2;i:1;}i:2;i:1;}i:2;a:3:{i:0;s:12:"section_open";i:1;a:1:{i:0;i:1;}i:2;i:1;}i:3;a:3:{i:0;s:6:"p_open";i:1;a:0:{}i:2;i:1;}i:4;a:3:{i:0;s:14:"underline_open";i:1;a:0:{}i:2;i:51;}i:5;a:3:{i:0;s:5:"cdata";i:1;a:1:{i:0;s:18:"Account Info (CVL)";}i:2;i:53;}i:6;a:3:{i:0;s:15:"underline_close";i:1;a:0:{}i:2;i:71;}i:7;a:3:{i:0;s:5:"cdata";i:1;a:1:{i:0;s:1:" ";}i:2;i:73;}i:8;a:3:{i:0;s:9:"linebreak";i:1;a:0:{}i:2;i:74;}i:9;a:3:{i:0;s:5:"cdata";i:1;a:1:{i:0;s:35:"
Ask Devi to get you access to the ";}i:2;i:76;}i:10;a:3:{i:0;s:12:"internallink";i:1;a:2:{i:0;s:11:"amt:amt_cvl";i:1;s:21:" CVL AMT account page";}i:2;i:111;}i:11;a:3:{i:0;s:5:"cdata";i:1;a:1:{i:0;s:1:".";}i:2;i:149;}i:12;a:3:{i:0;s:7:"p_close";i:1;a:0:{}i:2;i:150;}i:13;a:3:{i:0;s:6:"p_open";i:1;a:0:{}i:2;i:150;}i:14;a:3:{i:0;s:14:"underline_open";i:1;a:0:{}i:2;i:152;}i:15;a:3:{i:0;s:5:"cdata";i:1;a:1:{i:0;s:19:"Account Info (MLPL)";}i:2;i:154;}i:16;a:3:{i:0;s:15:"underline_close";i:1;a:0:{}i:2;i:173;}i:17;a:3:{i:0;s:5:"cdata";i:1;a:1:{i:0;s:1:" ";}i:2;i:175;}i:18;a:3:{i:0;s:9:"linebreak";i:1;a:0:{}i:2;i:176;}i:19;a:3:{i:0;s:5:"cdata";i:1;a:1:{i:0;s:36:"
Ask Dhruv to get you access to the ";}i:2;i:178;}i:20;a:3:{i:0;s:12:"internallink";i:1;a:2:{i:0;s:12:"amt:amt_mlpl";i:1;s:22:" MLPL AMT account page";}i:2;i:214;}i:21;a:3:{i:0;s:5:"cdata";i:1;a:1:{i:0;s:1:".";}i:2;i:254;}i:22;a:3:{i:0;s:7:"p_close";i:1;a:0:{}i:2;i:255;}i:23;a:3:{i:0;s:6:"p_open";i:1;a:0:{}i:2;i:255;}i:24;a:3:{i:0;s:5:"cdata";i:1;a:1:{i:0;s:243:"You can make simple HITs via their web interface, but it comes with limitations, such as only being able to download the results once in an hour (so if you’re currently running something and want to see new progress, you’ll have to wait). ";}i:2;i:257;}i:25;a:3:{i:0;s:12:"externallink";i:1;a:2:{i:0;s:63:"http://aws.amazon.com/developertools/Amazon-Mechanical-Turk/694";i:1;s:22:"The Command Line Tools";}i:2;i:500;}i:26;a:3:{i:0;s:5:"cdata";i:1;a:1:{i:0;s:91:" don’t have this issue and let you automatically create, delete, accept/reject work, etc.";}i:2;i:590;}i:27;a:3:{i:0;s:7:"p_close";i:1;a:0:{}i:2;i:681;}i:28;a:3:{i:0;s:6:"p_open";i:1;a:0:{}i:2;i:681;}i:29;a:3:{i:0;s:14:"underline_open";i:1;a:0:{}i:2;i:683;}i:30;a:3:{i:0;s:5:"cdata";i:1;a:1:{i:0;s:4:"boto";}i:2;i:685;}i:31;a:3:{i:0;s:15:"underline_close";i:1;a:0:{}i:2;i:689;}i:32;a:3:{i:0;s:5:"cdata";i:1;a:1:{i:0;s:1:" ";}i:2;i:691;}i:33;a:3:{i:0;s:9:"linebreak";i:1;a:0:{}i:2;i:692;}i:34;a:3:{i:0;s:5:"cdata";i:1;a:1:{i:0;s:1:"
";}i:2;i:694;}i:35;a:3:{i:0;s:12:"externallink";i:1;a:2:{i:0;s:39:"https://boto.readthedocs.org/en/latest/";i:1;s:4:"boto";}i:2;i:695;}i:36;a:3:{i:0;s:5:"cdata";i:1;a:1:{i:0;s:13:" is a Python ";}i:2;i:743;}i:37;a:3:{i:0;s:7:"acronym";i:1;a:1:{i:0;s:3:"API";}i:2;i:756;}i:38;a:3:{i:0;s:5:"cdata";i:1;a:1:{i:0;s:89:" for accessing Amazon services. Don’t know how to use, but supposed to be very helpful.";}i:2;i:759;}i:39;a:3:{i:0;s:7:"p_close";i:1;a:0:{}i:2;i:848;}i:40;a:3:{i:0;s:6:"p_open";i:1;a:0:{}i:2;i:848;}i:41;a:3:{i:0;s:14:"underline_open";i:1;a:0:{}i:2;i:850;}i:42;a:3:{i:0;s:5:"cdata";i:1;a:1:{i:0;s:24:"Command Line Tools (CLT)";}i:2;i:852;}i:43;a:3:{i:0;s:15:"underline_close";i:1;a:0:{}i:2;i:876;}i:44;a:3:{i:0;s:5:"cdata";i:1;a:1:{i:0;s:1:" ";}i:2;i:878;}i:45;a:3:{i:0;s:9:"linebreak";i:1;a:0:{}i:2;i:879;}i:46;a:3:{i:0;s:5:"cdata";i:1;a:1:{i:0;s:484:"
For CLT, in the main folder, there is a mturk.properties file that you should put the appropriate access_key and secret key in. In addition, there are two service_url values: one for launching things on the sandboxed version (e.g., you can’t waste money while you test out interfaces) and the real version. You can just comment out whichever version you want to run it on. (Note: you can also just pass the appropriate parameter to any of their scripts to run it on sandbox, e.g., ";}i:2;i:881;}i:47;a:3:{i:0;s:14:"monospace_open";i:1;a:0:{}i:2;i:1365;}i:48;a:3:{i:0;s:5:"cdata";i:1;a:1:{i:0;s:38:"./loadHITs.sh -sandbox [other options]";}i:2;i:1367;}i:49;a:3:{i:0;s:15:"monospace_close";i:1;a:0:{}i:2;i:1405;}i:50;a:3:{i:0;s:5:"cdata";i:1;a:1:{i:0;s:2:".)";}i:2;i:1407;}i:51;a:3:{i:0;s:7:"p_close";i:1;a:0:{}i:2;i:1409;}i:52;a:3:{i:0;s:6:"p_open";i:1;a:0:{}i:2;i:1409;}i:53;a:3:{i:0;s:14:"underline_open";i:1;a:0:{}i:2;i:1411;}i:54;a:3:{i:0;s:5:"cdata";i:1;a:1:{i:0;s:9:"HITTypeId";}i:2;i:1413;}i:55;a:3:{i:0;s:15:"underline_close";i:1;a:0:{}i:2;i:1422;}i:56;a:3:{i:0;s:5:"cdata";i:1;a:1:{i:0;s:120:": The (unique) ID that is associated with a particular type of HIT (e.g., collecting sentence descriptions for images). ";}i:2;i:1424;}i:57;a:3:{i:0;s:9:"linebreak";i:1;a:0:{}i:2;i:1544;}i:58;a:3:{i:0;s:5:"cdata";i:1;a:1:{i:0;s:1:"
";}i:2;i:1546;}i:59;a:3:{i:0;s:14:"underline_open";i:1;a:0:{}i:2;i:1547;}i:60;a:3:{i:0;s:5:"cdata";i:1;a:1:{i:0;s:5:"HITId";}i:2;i:1549;}i:61;a:3:{i:0;s:15:"underline_close";i:1;a:0:{}i:2;i:1554;}i:62;a:3:{i:0;s:5:"cdata";i:1;a:1:{i:0;s:162:": The (unique) ID that is associated with each (unique) version of a particular type of HIT (e.g.,  collecting sentence descriptions for a specific set of images)";}i:2;i:1556;}i:63;a:3:{i:0;s:7:"p_close";i:1;a:0:{}i:2;i:1718;}i:64;a:3:{i:0;s:6:"p_open";i:1;a:0:{}i:2;i:1718;}i:65;a:3:{i:0;s:5:"cdata";i:1;a:1:{i:0;s:276:"After downloading the CLT archive, extract it to a folder. (I recommend keeping it in a 3rd_party folder for all external software that you’ll be using for different projects.) Then you would want to export the environment variable so you can access their scripts. I.e., in ";}i:2;i:1721;}i:66;a:3:{i:0;s:14:"monospace_open";i:1;a:0:{}i:2;i:1997;}i:67;a:3:{i:0;s:5:"cdata";i:1;a:1:{i:0;s:9:"~/.bashrc";}i:2;i:1999;}i:68;a:3:{i:0;s:15:"monospace_close";i:1;a:0:{}i:2;i:2008;}i:69;a:3:{i:0;s:5:"cdata";i:1;a:1:{i:0;s:19:", you would append:";}i:2;i:2010;}i:70;a:3:{i:0;s:9:"linebreak";i:1;a:0:{}i:2;i:2029;}i:71;a:3:{i:0;s:5:"cdata";i:1;a:1:{i:0;s:1:"
";}i:2;i:2031;}i:72;a:3:{i:0;s:14:"monospace_open";i:1;a:0:{}i:2;i:2032;}i:73;a:3:{i:0;s:5:"cdata";i:1;a:1:{i:0;s:70:"export MTURK_CMD_HOME=/home/santol/cvmlp/3rd_party/aws-mturk-clt-1.3.1";}i:2;i:2034;}i:74;a:3:{i:0;s:15:"monospace_close";i:1;a:0:{}i:2;i:2104;}i:75;a:3:{i:0;s:5:"cdata";i:1;a:1:{i:0;s:1:" ";}i:2;i:2106;}i:76;a:3:{i:0;s:9:"linebreak";i:1;a:0:{}i:2;i:2107;}i:77;a:3:{i:0;s:5:"cdata";i:1;a:1:{i:0;s:1:"
";}i:2;i:2109;}i:78;a:3:{i:0;s:14:"monospace_open";i:1;a:0:{}i:2;i:2110;}i:79;a:3:{i:0;s:5:"cdata";i:1;a:1:{i:0;s:22:"export MTURK_JVM_ARGS=";}i:2;i:2112;}i:80;a:3:{i:0;s:18:"doublequoteopening";i:1;a:0:{}i:2;i:2134;}i:81;a:3:{i:0;s:5:"cdata";i:1;a:1:{i:0;s:31:"-Djdk.tls.trustNameService=true";}i:2;i:2135;}i:82;a:3:{i:0;s:18:"doublequoteclosing";i:1;a:0:{}i:2;i:2166;}i:83;a:3:{i:0;s:15:"monospace_close";i:1;a:0:{}i:2;i:2167;}i:84;a:3:{i:0;s:5:"cdata";i:1;a:1:{i:0;s:1:" ";}i:2;i:2169;}i:85;a:3:{i:0;s:9:"linebreak";i:1;a:0:{}i:2;i:2170;}i:86;a:3:{i:0;s:5:"cdata";i:1;a:1:{i:0;s:194:"
(The last line is due to an update in security in Java and out-dated CLT.) Now you just need to run the commands in their bin/ directory with appropriate inputs (e.g., configuration, HIT info).";}i:2;i:2172;}i:87;a:3:{i:0;s:7:"p_close";i:1;a:0:{}i:2;i:2366;}i:88;a:3:{i:0;s:6:"p_open";i:1;a:0:{}i:2;i:2366;}i:89;a:3:{i:0;s:14:"underline_open";i:1;a:0:{}i:2;i:2368;}i:90;a:3:{i:0;s:5:"cdata";i:1;a:1:{i:0;s:15:"properties File";}i:2;i:2370;}i:91;a:3:{i:0;s:15:"underline_close";i:1;a:0:{}i:2;i:2385;}i:92;a:3:{i:0;s:5:"cdata";i:1;a:1:{i:0;s:1:" ";}i:2;i:2387;}i:93;a:3:{i:0;s:9:"linebreak";i:1;a:0:{}i:2;i:2388;}i:94;a:3:{i:0;s:5:"cdata";i:1;a:1:{i:0;s:285:"
To do external HITs via CLTs, you need a properties file that contains all pertinent HIT information, such as HIT title, pay rate, number of workers per HIT, worker qualifications, etc. Also be sure to double-/triple-check this before you run things (especially when not on sandbox). ";}i:2;i:2390;}i:95;a:3:{i:0;s:7:"p_close";i:1;a:0:{}i:2;i:2675;}i:96;a:3:{i:0;s:6:"p_open";i:1;a:0:{}i:2;i:2675;}i:97;a:3:{i:0;s:14:"underline_open";i:1;a:0:{}i:2;i:2677;}i:98;a:3:{i:0;s:5:"cdata";i:1;a:1:{i:0;s:13:"question File";}i:2;i:2679;}i:99;a:3:{i:0;s:15:"underline_close";i:1;a:0:{}i:2;i:2692;}i:100;a:3:{i:0;s:5:"cdata";i:1;a:1:{i:0;s:1:" ";}i:2;i:2694;}i:101;a:3:{i:0;s:9:"linebreak";i:1;a:0:{}i:2;i:2695;}i:102;a:3:{i:0;s:5:"cdata";i:1;a:1:{i:0;s:55:"
This file contains the external HIT itself (i.e., the ";}i:2;i:2697;}i:103;a:3:{i:0;s:7:"acronym";i:1;a:1:{i:0;s:3:"URL";}i:2;i:2752;}i:104;a:3:{i:0;s:5:"cdata";i:1;a:1:{i:0;s:44:"). For example, you can have something like:";}i:2;i:2755;}i:105;a:3:{i:0;s:7:"p_close";i:1;a:0:{}i:2;i:2799;}i:106;a:3:{i:0;s:6:"p_open";i:1;a:0:{}i:2;i:2799;}i:107;a:3:{i:0;s:12:"externallink";i:1;a:2:{i:0;s:153:"https://computing.ece.vt.edu/~santol/cvmlp/pose_clipart/sites/clipart_collection/AMT_Pose_Clipart_Plain.html?sent1=${sent1}&sent2=${sent2}&sent3=${sent3}";i:1;N;}i:2;i:2801;}i:108;a:3:{i:0;s:7:"p_close";i:1;a:0:{}i:2;i:2958;}i:109;a:3:{i:0;s:6:"p_open";i:1;a:0:{}i:2;i:2958;}i:110;a:3:{i:0;s:5:"cdata";i:1;a:1:{i:0;s:13:"AMT uses the ";}i:2;i:2960;}i:111;a:3:{i:0;s:12:"externallink";i:1;a:2:{i:0;s:41:"http://en.wikipedia.org/wiki/Query_string";i:1;s:12:"query string";}i:2;i:2973;}i:112;a:3:{i:0;s:5:"cdata";i:1;a:1:{i:0;s:761:" to pass in data for that particular HIT. The query string is everything after the question mark (.html?). You list a parameter, e.g., sent1, followed by an equals sign, and then that parameters value, e.g., ${sent1}. Any additional parameters (e.g., sent2) can be set by separating them by an ampersand (&), but we escape it (not sure if you have to…) by entering ‘&amp;’ instead of just ‘&’. For most simpler HITs, you can probably get away with passing most information via the query string. Sometimes you might have more complicated data that won’t fit in the character-limited query string, so you will need to send filenames (e.g., JSON filenames) that the page will load from your server (e.g., computing.ece.vt.edu) that has all of the data.";}i:2;i:3031;}i:113;a:3:{i:0;s:7:"p_close";i:1;a:0:{}i:2;i:3792;}i:114;a:3:{i:0;s:6:"p_open";i:1;a:0:{}i:2;i:3792;}i:115;a:3:{i:0;s:14:"underline_open";i:1;a:0:{}i:2;i:3794;}i:116;a:3:{i:0;s:5:"cdata";i:1;a:1:{i:0;s:10:"input File";}i:2;i:3796;}i:117;a:3:{i:0;s:15:"underline_close";i:1;a:0:{}i:2;i:3806;}i:118;a:3:{i:0;s:5:"cdata";i:1;a:1:{i:0;s:1:" ";}i:2;i:3808;}i:119;a:3:{i:0;s:9:"linebreak";i:1;a:0:{}i:2;i:3809;}i:120;a:3:{i:0;s:5:"cdata";i:1;a:1:{i:0;s:620:"
The input file is a tab-delimited file whose first row contains the names of the parameters (e.g., sent1, sent2, sent3) that will get substituted into the External URL’s string (e.g., ${sent1}, ${sent2}, ${sent3}). Every (tab-delimited) row underneath contains the (probably row-wise unique) values of those parameters for different versions of the HIT. So if you have 10 of these rows and you have 5 workers do each HIT, you will end up with 10*5 data points.
(You might need to be careful about string formatting, though I have yet to run into any issues just having regular strings without any quotes or anything.)";}i:2;i:3811;}i:121;a:3:{i:0;s:7:"p_close";i:1;a:0:{}i:2;i:4431;}i:122;a:3:{i:0;s:6:"p_open";i:1;a:0:{}i:2;i:4431;}i:123;a:3:{i:0;s:14:"underline_open";i:1;a:0:{}i:2;i:4433;}i:124;a:3:{i:0;s:5:"cdata";i:1;a:1:{i:0;s:15:"Various Scripts";}i:2;i:4435;}i:125;a:3:{i:0;s:15:"underline_close";i:1;a:0:{}i:2;i:4450;}i:126;a:3:{i:0;s:5:"cdata";i:1;a:1:{i:0;s:1:" ";}i:2;i:4452;}i:127;a:3:{i:0;s:9:"linebreak";i:1;a:0:{}i:2;i:4453;}i:128;a:3:{i:0;s:5:"cdata";i:1;a:1:{i:0;s:820:"
With all of the “plumbing” in place, you can start managing HITs. I found it convenient to just have some simple scripts (e.g., Bash) that will create the right filenames to pass in as arguments to the CLT functions (e.g., loadHITs.sh). You can write one to start up the HITs, one to automatically approve/reject (with feedback) based on the (unique) AssignmentID. Many of these scripts have various arguments that can be useful, so skim over the UserGuide.html that comes with the CLT folder. For example, loadHITs has the -maxhits # flag that limits how many hits it creates (disregarding the total size of your input file). This is useful when you already have the final, complete input file but you’re still debugging your interface, so there’s no point in launching a billion HITs (it’s a waste of time).";}i:2;i:4455;}i:129;a:3:{i:0;s:7:"p_close";i:1;a:0:{}i:2;i:5275;}i:130;a:3:{i:0;s:6:"p_open";i:1;a:0:{}i:2;i:5275;}i:131;a:3:{i:0;s:5:"cdata";i:1;a:1:{i:0;s:232:"Once you loadHITs, it creates a success file that contains all the different HIT IDs (this can be useful if Devi gets a message from a worker and you need to figure out if it’s from one of your HITs (vs. someone else in the lab)).";}i:2;i:5277;}i:132;a:3:{i:0;s:7:"p_close";i:1;a:0:{}i:2;i:5509;}i:133;a:3:{i:0;s:6:"p_open";i:1;a:0:{}i:2;i:5509;}i:134;a:3:{i:0;s:5:"cdata";i:1;a:1:{i:0;s:277:"Those are the basic concepts of running things via CLT. As with anything that you automate, please be very cautious. Mistakes can waste lab money, result in some bad work being approved, result in good workers (who tend to follow requesters they like) being angry at you, etc. ";}i:2;i:5511;}i:135;a:3:{i:0;s:7:"p_close";i:1;a:0:{}i:2;i:5788;}i:136;a:3:{i:0;s:6:"p_open";i:1;a:0:{}i:2;i:5788;}i:137;a:3:{i:0;s:5:"cdata";i:1;a:1:{i:0;s:204:"approveWork.sh - Either by “approve file” (and individual feedback) or by “success file” without feedback. Probably good to use two rounds of approval via individual feedback then group feedback. ";}i:2;i:5790;}i:138;a:3:{i:0;s:11:"strong_open";i:1;a:0:{}i:2;i:5994;}i:139;a:3:{i:0;s:5:"cdata";i:1;a:1:{i:0;s:54:"BE SURE TO REJECT WORK BEFORE DOING IT BY SUCCESSFILE.";}i:2;i:5996;}i:140;a:3:{i:0;s:12:"strong_close";i:1;a:0:{}i:2;i:6050;}i:141;a:3:{i:0;s:7:"p_close";i:1;a:0:{}i:2;i:6052;}i:142;a:3:{i:0;s:6:"p_open";i:1;a:0:{}i:2;i:6052;}i:143;a:3:{i:0;s:11:"strong_open";i:1;a:0:{}i:2;i:6054;}i:144;a:3:{i:0;s:5:"cdata";i:1;a:1:{i:0;s:233:"After running rejection/approval, be sure to download again so you’re results file has the up-to-date info (e.g., approvals). This can especially be handy if task isn't complete yet (i.e., looking at non-approved/reject work only).";}i:2;i:6056;}i:145;a:3:{i:0;s:12:"strong_close";i:1;a:0:{}i:2;i:6289;}i:146;a:3:{i:0;s:7:"p_close";i:1;a:0:{}i:2;i:6291;}i:147;a:3:{i:0;s:6:"p_open";i:1;a:0:{}i:2;i:6291;}i:148;a:3:{i:0;s:14:"monospace_open";i:1;a:0:{}i:2;i:6293;}i:149;a:3:{i:0;s:5:"cdata";i:1;a:1:{i:0;s:67:"rsync -avzhe ssh sites/ filebox:/home/santol/public_html/cvmlp/vqa/";}i:2;i:6295;}i:150;a:3:{i:0;s:15:"monospace_close";i:1;a:0:{}i:2;i:6362;}i:151;a:3:{i:0;s:5:"cdata";i:1;a:1:{i:0;s:0:"";}i:2;i:6364;}i:152;a:3:{i:0;s:7:"p_close";i:1;a:0:{}i:2;i:6364;}i:153;a:3:{i:0;s:13:"section_close";i:1;a:0:{}i:2;i:6364;}i:154;a:3:{i:0;s:12:"document_end";i:1;a:0:{}i:2;i:6364;}}